^C:\USERS\ИННА\DESKTOP\WINSOCK1\WINSOCK1\RELEASE\STDAFX.OBJ|C:\USERS\ИННА\DESKTOP\WINSOCK1\WINSOCK1\RELEASE\WINSOCK1.OBJ
/ERRORREPORT:PROMPT /OUT:"C:\Users\Инна\Desktop\WinSock1\Release\WinSock1.exe" /INCREMENTAL:NO /NOLOGO /LIBPATH:"C:\Program Files (x86)\Visual Leak Detector\lib\Win32" Wsock32.lib kernel32.lib user32.lib gdi32.lib winspool.lib comdlg32.lib advapi32.lib shell32.lib ole32.lib oleaut32.lib uuid.lib odbc32.lib odbccp32.lib /MANIFEST /ManifestFile:"Release\WinSock1.exe.intermediate.manifest" /MANIFESTUAC:"level='asInvoker' uiAccess='false'" /DEBUG /PDB:"C:\Users\Инна\Desktop\WinSock1\Release\WinSock1.pdb" /SUBSYSTEM:CONSOLE /OPT:REF /OPT:ICF /LTCG /TLBID:1 /DYNAMICBASE /NXCOMPAT /IMPLIB:"C:\Users\Инна\Desktop\WinSock1\Release\WinSock1.lib" /MACHINE:X86 Release\stdafx.obj
Release\WinSock1.obj
^C:\USERS\ИННА\DOCUMENTS\VISUAL STUDIO 2010\PROJECTS\WINSOCK1\WINSOCK1\RELEASE\STDAFX.OBJ|C:\USERS\ИННА\DOCUMENTS\VISUAL STUDIO 2010\PROJECTS\WINSOCK1\WINSOCK1\RELEASE\WINSOCK1.OBJ
/ERRORREPORT:PROMPT /OUT:"C:\Users\Инна\Documents\Visual Studio 2010\Projects\WinSock1\Release\WinSock1.exe" /INCREMENTAL:NO /NOLOGO /LIBPATH:"C:\Program Files (x86)\Visual Leak Detector\lib\Win32" Wsock32.lib kernel32.lib user32.lib gdi32.lib winspool.lib comdlg32.lib advapi32.lib shell32.lib ole32.lib oleaut32.lib uuid.lib odbc32.lib odbccp32.lib /MANIFEST /ManifestFile:"Release\WinSock1.exe.intermediate.manifest" /MANIFESTUAC:"level='asInvoker' uiAccess='false'" /DEBUG /PDB:"C:\Users\Инна\Documents\Visual Studio 2010\Projects\WinSock1\Release\WinSock1.pdb" /SUBSYSTEM:CONSOLE /OPT:REF /OPT:ICF /LTCG /TLBID:1 /DYNAMICBASE /NXCOMPAT /IMPLIB:"C:\Users\Инна\Documents\Visual Studio 2010\Projects\WinSock1\Release\WinSock1.lib" /MACHINE:X86 Release\stdafx.obj
Release\WinSock1.obj
