^C:\USERS\ИННА\DESKTOP\WINSOCK1\WINSOCK1\DEBUG\WINSOCK1_MANIFEST.RC
/nologo /fo"Debug\WinSock1.exe.embed.manifest.res" Debug\WinSock1_manifest.rc /nologo /fo"Debug\WinSock1.exe.embed.manifest.res" C:\USERS\ИННА\DESKTOP\WINSOCK1\WINSOCK1\DEBUG\WINSOCK1_MANIFEST.RC
^C:\USERS\ИННА\DOCUMENTS\VISUAL STUDIO 2010\PROJECTS\WINSOCK1\WINSOCK1\DEBUG\WINSOCK1_MANIFEST.RC
/nologo /fo"Debug\WinSock1.exe.embed.manifest.res" Debug\WinSock1_manifest.rc /nologo /fo"Debug\WinSock1.exe.embed.manifest.res" C:\USERS\ИННА\DOCUMENTS\VISUAL STUDIO 2010\PROJECTS\WINSOCK1\WINSOCK1\DEBUG\WINSOCK1_MANIFEST.RC
